…
*Find number of distinct subway stations.*

``` r
nyc_transit |> 
  distinct(line, station_name)
```

    ## # A tibble: 465 × 2
    ##    line     station_name            
    ##    <chr>    <chr>                   
    ##  1 4 Avenue 25th St                 
    ##  2 4 Avenue 36th St                 
    ##  3 4 Avenue 45th St                 
    ##  4 4 Avenue 53rd St                 
    ##  5 4 Avenue 59th St                 
    ##  6 4 Avenue 77th St                 
    ##  7 4 Avenue 86th St                 
    ##  8 4 Avenue 95th St                 
    ##  9 4 Avenue 9th St                  
    ## 10 4 Avenue Atlantic Av-Barclays Ctr
    ## # ℹ 455 more rows

There are 465 distinct subway stations.

*Find number of stations that are ADA compliant.*

``` r
nyc_transit |> 
  filter(ada == TRUE) |> 
  distinct(line, station_name)
```

    ## # A tibble: 84 × 2
    ##    line            station_name                  
    ##    <chr>           <chr>                         
    ##  1 4 Avenue        Atlantic Av-Barclays Ctr      
    ##  2 4 Avenue        DeKalb Av                     
    ##  3 4 Avenue        Pacific St                    
    ##  4 42nd St Shuttle Grand Central                 
    ##  5 6 Avenue        34th St                       
    ##  6 6 Avenue        47-50th Sts Rockefeller Center
    ##  7 6 Avenue        Church Av                     
    ##  8 63rd Street     21st St                       
    ##  9 63rd Street     Lexington Av                  
    ## 10 63rd Street     Roosevelt Island              
    ## # ℹ 74 more rows

There are 84 distinct stations that are ADA compliant.

*Find proportion of station entrances / exits without vending that allow
entrance.*  

Stations without vending: 99

``` r
nyc_transit |> 
  filter(vending == "NO") |> 
  distinct(line, station_name)
```

    ## # A tibble: 99 × 2
    ##    line            station_name         
    ##    <chr>           <chr>                
    ##  1 4 Avenue        53rd St              
    ##  2 4 Avenue        77th St              
    ##  3 4 Avenue        9th St               
    ##  4 4 Avenue        Bay Ridge Av         
    ##  5 42nd St Shuttle Grand Central        
    ##  6 6 Avenue        7th Av               
    ##  7 6 Avenue        Bergen St            
    ##  8 6 Avenue        Broadway-Lafayette St
    ##  9 8 Avenue        135th St             
    ## 10 8 Avenue        14th St              
    ## # ℹ 89 more rows

Stations without vending that allow entrance: 43

``` r
nyc_transit |> 
  filter(vending == "NO", entry == TRUE) |> 
  distinct(line, station_name)
```

    ## # A tibble: 43 × 2
    ##    line     station_name
    ##    <chr>    <chr>       
    ##  1 4 Avenue 9th St      
    ##  2 6 Avenue 7th Av      
    ##  3 6 Avenue Bergen St   
    ##  4 8 Avenue 135th St    
    ##  5 8 Avenue 59th St     
    ##  6 8 Avenue Spring St   
    ##  7 Brighton Av J        
    ##  8 Brighton West 8th St 
    ##  9 Broadway 23rd St     
    ## 10 Broadway 8th St      
    ## # ℹ 33 more rows
…
``` r
nyc_transit |> 
  mutate(route8 = as.character(route8), 
         route9 = as.character(route9), 
         route10 = as.character(route10), 
         route11 = as.character(route11)) |> 
  pivot_longer(route1:route11, 
               names_to = "route_number", 
               values_to = "route_name") |> 
  filter(route_name == "A") |> 
  distinct(line, station_name)
```

    ## # A tibble: 60 × 2
    ##    line            station_name                 
    ##    <chr>           <chr>                        
    ##  1 42nd St Shuttle Times Square                 
    ##  2 8 Avenue        125th St                     
    ##  3 8 Avenue        145th St                     
    ##  4 8 Avenue        14th St                      
    ##  5 8 Avenue        168th St - Washington Heights
    ##  6 8 Avenue        175th St                     
    ##  7 8 Avenue        181st St                     
    ##  8 8 Avenue        190th St                     
    ##  9 8 Avenue        34th St                      
    ## 10 8 Avenue        42nd St                      
    ## # ℹ 50 more rows
…
